{
	"name": "Default Portrait Layout",
	"description": "Default perspective in portrait mode.",
	"orientation": "portrait",
	"json-layout-version": "JSONTableLayout:1.0",
	"supportedNumericBases": [
														2,
														8
														],
	"layout": {
			"rows":
			[
			]
	}
}