{
	"name": "Default Portrait Layout",
	"description": "Default perspective in portrait mode.",
	"orientation": "portrait",
	"json-layout-version": "JSONTableLayout:1.0",
	"layout": {
			"rows": [
				[
					{
						"operation-id": "0"
					}
				],
				[
					{
						"operation-id": "1"
					}
				],
				[
					{
						"operation-id": "2"
					}
				],
				[
					{
						"operation-id": "3"
					}
				],
				[
					{
						"operation-id": "4"
					}
				],
				[
					{
						"operation-id": "5"
					}
				],
				[
					{
						"operation-id": "6"
					}
				],
				[
					{
						"operation-id": "7"
					}
				],
				[
					{
						"operation-id": "8"
					}
				],
				[
					{
						"operation-id": "9"
					}
				]
			]
	}
}