{
	"name": "Default Portrait Layout",
	"description": "Default perspective in portrait mode.",
	"orientation": "portrait",
	"json-layout-version": "JSONTableLayout:1.0",
	"layout": {
			"rows": [
				[
					{
						"operation-id": "1",
						"row-span": 2
					},
					{
						"operation-id": "1",
						"row-span": 2
					},
					{
						"operation-id": "1"
					},
					{
						"operation-id": "1"
					}
				],
				[
					{
						"operation-id": "1"
					},
					{
						"operation-id": "1"
					}
				],
				[
					{
						"operation-id": "1"
					},
					{
						"operation-id": "1"
					},
					{
						"operation-id": "1"
					},
					{
						"operation-id": "1"
					}
				]
			]
	}
}