{
	"name": "Default Portrait Perspective",
	"description": "Default perspective in portrait mode.",
	"orientation": "portrait",
	"json-layout-version": "JSONTableLayout:1.0",
	"supportedNumericBases": [
		2,
		8,
		10
	],
	"layout": {
		"rows": [
			[
				{
					"operation-id": "rst",
					"buttonType": "operation_a"
				},
				{
					"operation-id": "clx",
					"buttonType": "operation_a",
					"row-span": 2
				}
			],
			[
				{
					"operation-id": "rst",
					"buttonType": "operation_a"
				}
			],
			[
				{
					"operation-id": "rst",
					"buttonType": "operation_a"
				},
				{
					"operation-id": "clx",
					"buttonType": "operation_a"
				}
			],
			[
				{
					"operation-id": "rst",
					"buttonType": "operation_a",
					"column-span": 2
				}
			]
		]
	}
}