{
	"name": "Default Portrait Perspective",
	"description": "Default perspective in portrait mode.",
	"layouts": {
		"normal": {
			"rows": [
				[
					{
						"id": "check",
						"buttonType": "display_x",
						"extendsRight": true
					},
					{
						"id": "restore",
						"buttonType": "display_x",
						"extendsRight": true
					},
					{
						"id": "1/x",
						"buttonType": "display_x",
						"extendsRight": true
					},
					{
						"id": "sqrtx",
						"buttonType": "display_x",
						"extendsRight": true
					},
					{
						"id": "clx",
						"buttonType": "display_x"
					}
				],
				[
					{
						"id": "x<->y",
						"buttonType": "operation_a"
					},
					{
						"id": "yrtx",
						"buttonType": "operation_a"
					},
					{
						"id": "1/x",
						"buttonType": "operation_a"
					},
					{
						"id": "sqrtx",
						"buttonType": "operation_a"
					},
					{
						"id": "clx",
						"buttonType": "operation_a"
					}
				],
				[
					{
						"id": "rotdown",
						"buttonType": "operation_a"
					},
					{
						"id": "7",
						"buttonType": "operand_a"
					},
					{
						"id": "8",
						"buttonType": "operand_a"
					},
					{
						"id": "9",
						"buttonType": "operand_a"
					},
					{
						"id": "/",
						"buttonType": "operation_b"
					}
				],
				[
					{
						"id": "rotup",
						"buttonType": "operation_a"
					},
					{
						"id": "4",
						"buttonType": "operand_a"
					},
					{
						"id": "5",
						"buttonType": "operand_a"
					},
					{
						"id": "6",
						"buttonType": "operand_a"
					},
					{
						"id": "*",
						"buttonType": "operation_b"
					}
				],
				[
					{
						"id": "ent",
						"buttonType": "operation_a",
						"extendsDown": true
					},
					{
						"id": "1",
						"buttonType": "operand_a"
					},
					{
						"id": "2",
						"buttonType": "operand_a"
					},
					{
						"id": "3",
						"buttonType": "operand_a"
					},
					{
						"id": "-",
						"buttonType": "operation_b"
					}
				],
				[
					{
						"id": "ent",
						"buttonType": "operation_a",
						"extendsUp": true
					},
					{
						"id": "0",
						"buttonType": "operand_a"
					},
					{
						"id": ".",
						"buttonType": "operand_a"
					},
					{
						"id": "chsx",
						"buttonType": "operation_a"
					},
					{
						"id": "+",
						"buttonType": "operation_b"
					}
				]
			]
		}
	}
}