{
	"name": "defaultLandscapePerspective",
	"description": "Default perspective in landscape mode.",
	"layouts": {
		"normal": {
			"rows": [
				[
					{
						"id": "restore",
						"buttonType": "display_x",
						"extendsRight": true
					},
					{
						"id": "1/x",
						"buttonType": "display_x",
						"extendsRight": true
					},
					{
						"id": "sqrtx",
						"buttonType": "display_x",
						"extendsRight": true
					},
					{
						"id": "clx",
						"buttonType": "display_x"
					}
				],
				[
					{
						"id": "rst",
						"buttonType": "operation_a"
					},
					{
						"id": "clx",
						"buttonType": "operation_a"
					},
					{
						"id": "1/x",
						"buttonType": "operation_a"
					},
					{
						"id": "x<->y",
						"buttonType": "operation_a"
					}
				],
				[
					{
						"id": "7",
						"buttonType": "operand_a"
					},
					{
						"id": "8",
						"buttonType": "operand_a"
					},
					{
						"id": "9",
						"buttonType": "operand_a"
					},
					{
						"id": "/",
						"buttonType": "operation_a"
					}
				],
				[
					{
						"id": "4",
						"buttonType": "operand_a"
					},
					{
						"id": "5",
						"buttonType": "operand_a"
					},
					{
						"id": "6",
						"buttonType": "operand_a"
					},
					{
						"id": "*",
						"buttonType": "operation_a"
					}
				],
				[
					{
						"id": "1",
						"buttonType": "operand_a"
					},
					{
						"id": "2",
						"buttonType": "operand_a"
					},
					{
						"id": "3",
						"buttonType": "operand_a"
					},
					{
						"id": "-",
						"buttonType": "operation_a"
					}
				],
				[
					{
						"id": "0",
						"buttonType": "operand_a"
					},
					{
						"id": ".",
						"buttonType": "operand_a"
					},
					{
						"id": "ent",
						"buttonType": "operand_a"
					},
					{
						"id": "+",
						"buttonType": "operation_a"
					}
				],
				[
					{
						"id": "f",
						"buttonType": "function_a"
					},
					{
						"id": "g",
						"buttonType": "function_b"
					},
					{
						"id": "INV",
						"buttonType": "placeholder"
					},
					{
						"id": "INV",
						"buttonType": "placeholder"
					}
				]
			]
		},
		"function_a": {
			"rows": [
				[
					{
						"id": "rst",
						"buttonType": "operation_a"
					},
					{
						"id": "clx",
						"buttonType": "operation_a"
					},
					{
						"id": "1/x",
						"buttonType": "operation_a"
					},
					{
						"id": "x<->y",
						"buttonType": "operation_a"
					}
				],
				[
					{
						"id": "9",
						"buttonType": "operand_a"
					},
					{
						"id": "8",
						"buttonType": "operand_a"
					},
					{
						"id": "7",
						"buttonType": "operand_a"
					},
					{
						"id": "/",
						"buttonType": "operation_a"
					}
				],
				[
					{
						"id": "6",
						"buttonType": "operand_a"
					},
					{
						"id": "5",
						"buttonType": "operand_a"
					},
					{
						"id": "4",
						"buttonType": "operand_a"
					},
					{
						"id": "*",
						"buttonType": "operation_a"
					}
				],
				[
					{
						"id": "3",
						"buttonType": "operand_a"
					},
					{
						"id": "2",
						"buttonType": "operand_a"
					},
					{
						"id": "1",
						"buttonType": "operand_a"
					},
					{
						"id": "-",
						"buttonType": "operation_a"
					}
				],
				[
					{
						"id": "0",
						"buttonType": "operand_a"
					},
					{
						"id": ".",
						"buttonType": "operand_a"
					},
					{
						"id": "ent",
						"buttonType": "operand_a"
					},
					{
						"id": "+",
						"buttonType": "operation_a"
					}
				],
				[
					{
						"id": "normal",
						"buttonType": "normal"
					},
					{
						"id": "g",
						"buttonType": "function_b"
					},
					{
						"id": "INV",
						"buttonType": "placeholder"
					},
					{
						"id": "INV",
						"buttonType": "placeholder"
					}
				]
			]
		}
	}
}