{
	"name": "Light",
	"description": "Light profile using high-contrast colors.",
	"details": {
		"fonts": {
			"italic": {
				"style": "italic"
			}
		},
		"colors": {
			"shade1": {
				"red": 235,
				"green": 235,
				"blue": 235,
				"alpha": 1
			},
			"shade2": {
				"red": 155,
				"green": 155,
				"blue": 155,
				"alpha": 255
			},
			"shade3": {
				"red": 80,
				"green": 80,
				"blue": 80,
				"alpha": 255
			},
			"shade4": {
				"red": 115,
				"green": 115,
				"blue": 115,
				"alpha": 255
			}
		}
	},
	"defaults": {
		"settings.activeMnemonicFont": "italic",
		"global": "#white",
		"buttonPressedColor": "shade1",
		"activeMnemonicColor": "#black",
		"lineColor": "shade1",
		"inactiveMnemonicColor": "shade2",
		"activeMnemonicColorPressed": "shade3",
		"inactiveMnemonicColorPressed": "shade4"
	},
	"profile": {
	}
}