{
	"name": "Test Profile",
	"description": "Test Profile",
	"details": {
		"colors": {
			"color1": {
				"red": 1,
				"green": 7,
				"blue": 11,
				"alpha": 67
			},
			"color2": {
				"red": 2,
				"green": 6,
				"blue": 12,
				"alpha": 66
			},
			"color3": {
				"red": 3,
				"green": 5,
				"blue": 13,
				"alpha": 65
			},
			"color4": {
				"red": 4,
				"green": 4,
				"blue": 14,
				"alpha": 64
			},
			"color5": {
				"red": 5,
				"green": 3,
				"blue": 15,
				"alpha": 63
			},
			"color6": {
				"red": 6,
				"green": 2,
				"blue": 16,
				"alpha": 62
			},
			"color7": {
				"red": 7,
				"green": 1,
				"blue": 17,
				"alpha": 61
			}
		},
		"fonts": {
			"italic": {
				"style": "italic"
			}
		}
	},
	"profile": {
		"normal": {
			"operation_a": {
				"buttonColor": "color1",
				"buttonPressedColor": "color2",
				"lineColor": "color3",
				"activeMnemonicColor": "color4",
				"activeMnemonicColorPressed": "color5",
				"inactiveMnemonicColor": "color6",
				"inactiveMnemonicColorPressed": "color7",
				"inactiveMnemonicFont": "italic"
			},
			"operation_b": {
				"buttonColor": "#white",
				"buttonPressedColor": "#black",
				"lineColor": "color3",
				"activeMnemonicColor": "color4",
				"activeMnemonicColorPressed": "color5",
				"inactiveMnemonicColor": "color6",
				"inactiveMnemonicColorPressed": "color7",
				"inactiveMnemonicFont": "italic"
			}
		}
	}
}