{
	"name": "Andrew",
	"description": "Minimal, optimal for portrait.",
	"orientation": "landscape",
	"suggestedDecimals": 5,
	"json-layout-version": "JSONTableLayout:1.0",
	"supportedNumericBases": [
		10
	],
	"layout": {
		"rows": [
			[
				{
					"ui-function": "function-a"
				},
				{
					"operation-id": "+"
				},
				{
					"operation-id": "-"
				},
				{
					"ui-function": "display-y",
					"column-span": 5
				}
			],
			[
				{
					"ui-function": "function-b"
				},
				{
					"operation-id": "*"
				},
				{
					"operation-id": "/"
				},
				{
					"ui-function": "display-x",
					"column-span": 5
				}
			],
			[
				{
					"operation-id": "1"
				},
				{
					"operation-id": "2"
				},
				{
					"operation-id": "3"
				},
				{
					"operation-id": "4"
				},
				{
					"operation-id": "ent",
					"row-span": 3
				},
				{
					"operation-id": "rst"
				},
				{
					"ui-function": "placeholder",
					"column-span": 1
				},
				{
					"operation-id": "xpercenty"
				}
			],
			[
				{
					"operation-id": "5"
				},
				{
					"operation-id": "6"
				},
				{
					"operation-id": "7"
				},
				{
					"operation-id": "8"
				},
				{
					"operation-id": "dropx"
				},
				{
					"ui-function": "placeholder",
					"column-span": 2
				}
			],
			[
				{
					"operation-id": "9"
				},
				{
					"operation-id": "0"
				},
				{
					"operation-id": "00"
				},
				{
					"operation-id": "."
				},
				{
					"operation-id": "x<->y"
				},
				{
					"ui-function": "placeholder",
					"column-span": 1
				},
				{
					"ui-function": "settings"
				}
			]
		],
		"layers": {
			"function-a": [
				[
					{
						"row-coordinate": 4,
						"ui-function": "normal"
					}
				]				
			]
		}
	}
}
