{
	"name": "HP-15C",
	"description": "Perspective that resembles an HP-15C",
	"orientation": "landscape",
	"suggestedDecimals": 5,
	"json-layout-version": "JSONTableLayout:1.0",
	"supportedNumericBases": [
		2,
		8,
		10,
		16
	],
	"layout": {
		"rows": [
			[
				{
					"ui-function": "display-y",
					"column-span": 11
				}
			],
			[
				{
					"ui-function": "display-x",
					"column-span": 11
				}
			],
			[
				{
					"operation-id": "sqrtx"
				},
				{
					"operation-id": "e^x"
				},
				{
					"operation-id": "10^x"
				},
				{
					"operation-id": "y^x"
				},
				{
					"operation-id": "1/x"
				},
				{
					"operation-id": "chsx"
				},
				{
					"operation-id": "lnx"
				},
				{
					"operation-id": "7"
				},
				{
					"operation-id": "8"
				},
				{
					"operation-id": "9"
				},
				{
					"operation-id": "/"
				}
			],
			[
				{
					"operation-id": "sinhx"
				},
				{
					"operation-id": "coshx"
				},
				{
					"operation-id": "tanhx"
				},
				{
					"operation-id": "sinx"
				},
				{
					"operation-id": "cosx"
				},
				{
					"operation-id": "tanx"
				},
				{
					"operation-id": "log2x"
				},
				{
					"operation-id": "4"
				},
				{
					"operation-id": "5"
				},
				{
					"operation-id": "6"
				},
				{
					"operation-id": "*"
				}
			],
			[
				{
					"operation-id": "store"
				},
				{
					"operation-id": "recall"
				},
				{
					"operation-id": "rotdown"
				},
				{
					"operation-id": "rotup"
				},
				{
					"operation-id": "x<->y"
				},
				{
					"operation-id": "bckpx"
				},
				{
					"operation-id": "ent",
					"row-span": 2
				},
				{
					"operation-id": "1"
				},
				{
					"operation-id": "2"
				},
				{
					"operation-id": "3"
				},
				{
					"operation-id": "-"
				}
			],
			[
				{
					"ui-function": "settings"
				},
				{
					"operation-id": "check"
				},
				{
					"ui-function": "function-a"
				},
				{
					"ui-function": "function-b"
				},
				{
					"operation-id": "log10x"
				},
				{
					"operation-id": "rst"
				},
				{
					"operation-id": "0"
				},
				{
					"operation-id": ".",
					"column-span": 2
				},
				{
					"operation-id": "+"
				}
			]
		],
		"layers": {
			"function-a": [
				[
					{
						"row-coordinate": 2,
						"operation-id": "bin"
					},
					{
						"operation-id": "oct"
					},
					{
						"operation-id": "dec"
					},
					{
						"operation-id": "hex"
					},
					{
						"operation-id": "sum"
					},
					{
						"operation-id": "sum-product"
					}
				],
				[
					{
						"operation-id": "intx"
					},
					{
						"operation-id": "fracx"
					}
				],
				[
					{
						"column-coordinate": 8,
						"operation-id": "to_hms"
					}
				],
				[
					{
						"column-coordinate": 1,
						"operation-id": "restore"
					},
					{
						"ui-function": "normal"
					},
					{
						"column-coordinate": 10,
						"operation-id": "py_x"
					}
				]
			],
			"function-b": [
				[
					{
						"row-coordinate": 3,
						"column-coordinate": 6,
						"operation-id": "pi_constant"
					}
				],
				[
					{
						"column-coordinate": 5,
						"operation-id": "dropx"
					},
					{
						"column-coordinate": 8,
						"operation-id": "to_hour"
					}
				],
				[
					{
						"column-coordinate": 3,
						"ui-function": "normal"
					},
					{
						"column-coordinate": 7,
						"operation-id": "x!"
					},
					{
						"column-coordinate": 10,
						"operation-id": "cy_x"
					}
				]
			]
		}
	}
}