{
	"name": "Win Programmer",
	"description": "Mimicks the programmer layout on the Windows calculator.",
	"orientation": "landscape",
	"suggestedDecimals": 0,
	"json-layout-version": "JSONTableLayout:1.0",
	"supportedNumericBases": [
		2,
		8,
		10,
		16
	],
	"layout": {
		"rows": [
			[
				{
					"ui-function": "display-y",
					"column-span": 9
				}
			],
			[
				{
					"ui-function": "display-x",
					"column-span": 9
				}
			],
			[
				{
					"operation-id": "bin"
				},
				{
					"operation-id": "dec"
				},
				{
					"operation-id": "ymodx"
				},
				{
					"operation-id": "A"
				},
				{
					"operation-id": "cm"
				},
				{
					"operation-id": "rm"
				},
				{
					"operation-id": "sm"
				},
				{
					"operation-id": "m+"
				},
				{
					"operation-id": "m-"
				}
			],
			[
				{
					"operation-id": "oct"
				},
				{
					"operation-id": "hex"
				},
				{
					"operation-id": "yrshiftx"
				},
				{
					"operation-id": "B"
				},
				{
					"operation-id": "bckpx"
				},
				{
					"operation-id": "rst"
				},
				{
					"operation-id": "dropx"
				},
				{
					"operation-id": "chsx"
				},
				{
					"operation-id": "sqrtx"
				}
			],
			[
				{
					"operation-id": "wordsz"
				},
				{
					"operation-id": "unsign"
				},
				{
					"operation-id": "ylshiftx"
				},
				{
					"operation-id": "C"
				},
				{
					"operation-id": "7"
				},
				{
					"operation-id": "8"
				},
				{
					"operation-id": "9"
				},
				{
					"operation-id": "/"
				},
				{
					"operation-id": "percent"
				}
			],
			[
				{
					"operation-id": "absx"
				},
				{
					"operation-id": "lshift"
				},
				{
					"operation-id": "rshift"
				},
				{
					"operation-id": "D"
				},
				{
					"operation-id": "4"
				},
				{
					"operation-id": "5"
				},
				{
					"operation-id": "6"
				},
				{
					"operation-id": "*"
				},
				{
					"operation-id": "1/x"
				}
			],
			[
				{
					"operation-id": "nor"
				},
				{
					"operation-id": "or"
				},
				{
					"operation-id": "xor"
				},
				{
					"operation-id": "E"
				},
				{
					"operation-id": "1"
				},
				{
					"operation-id": "2"
				},
				{
					"operation-id": "3"
				},
				{
					"operation-id": "-"
				},
				{
					"operation-id": "ent",
					"row-span": 2
				}
			],
			[
				{
					"ui-function": "settings"
				},
				{
					"operation-id": "not"
				},
				{
					"operation-id": "and"
				},
				{
					"operation-id": "F"
				},
				{
					"operation-id": "0",
					"extendsRight": true
				},
				{
					"operation-id": "0"
				},
				{
					"operation-id": "."
				},
				{
					"operation-id": "+"
				}
			]
		]
	}
}