{
	"mnemonic": "D[Δ]",
	"description": "Calculates the difference between dates in X and Y, in the format yyyyMMdd.",
	"operations": [
		"to_julian_day",
		"x<->y",
		"to_julian_day",
		"x<->y",
		"-"
	]
}