{
	"mnemonic": "ms→t",
	"description": "Given a number of milliseconds in X.N, convert to a time interval in the format HHmmss.SSSN.  Fractional milliseconds are supported but rounded in the output to the current number of decimals.",
	"formula": "",
	"operations": [
		"ent",
		"4",
		"store",
		"fracx",
		"1",
		"store",
		"dropx",
		"4",
		"recall",
		"intx",
		"2",
		"store",
		"#1000",
		"ymodx",
		"3",
		"store",
		"2",
		"recall",
		"x<->y",
		"-",
		"5",
		"store",
		"#1000",
		"/",
		"6",
		"store",
		"#60",
		"ymodx",
		"7",
		"store",
		"dropx",
		"6",
		"recall",
		"#60",
		"/",
		"intx",
		"8",
		"store",
		"#60",
		"ymodx",
		"9",
		"store",
		"dropx",
		"8",
		"recall",
		"#60",
		"/",
		"intx",
		"#10",
		"store",
		"dropx",
		"#10",
		"recall",
		"#100",
		"*",
		"9",
		"recall",
		"+",
		"#100",
		"*",
		"7",
		"recall",
		"+",
		"3",
		"recall",
		"1",
		"recall",
		"+",
		"#1000",
		"/",
		"+"
	]
}