{
	"mnemonic": "hour.seconds",
	"description": "Subroutine for hour.  Calculates seconds from x and pushes back on the stack.  Calculated as fracx(fracx(x) * 60) * 60",
	"operations": [
		"fracx",
		"#60",
		"*",
		"fracx",
		"#60",
		"*"
	]
}