{
	"mnemonic": "hour.minutes",
	"description": "Subroutine for hour.  Calculates minutes from x and pushes back on the stack.  Calculated as intx(fracx(x) * 60)",
	"operations": [
		"fracx",
		"#60",
		"*",
		"intx"
	]
}