{
	"mnemonic": "h.ms.seconds",
	"description": "Subroutine for h.ms.  Calculates seconds from x and pushes back on the stack.  Calculated as fracx(fracx(x) * 100) * 100",
	"operations": [
		"fracx",
		"#100",
		"*",
		"fracx",
		"#100",
		"*"
	]
}